[
  {
    "id": "448400",
    "country": "India",
    "department": null,
    "displayName": "John Doe",
    "division": "Engineering",
    "firstName": "John",
    "hireDate": "2016-07-03",
    "jobTitle": "Distribution Engineer",
    "lastName": "Doe",
    "location": "Lyra",
    "flsaCode": "Active",
    "supervisor": "Tierney Braun",
    "supervisorEId": "41226",
    "workEmail": "johndoe@mycompany.com"
  },
  {
    "id": "448401",
    "country": "USA",
    "department": null,
    "displayName": "Armanda Fiore",
    "division": null,
    "firstName": "Armanda",
    "hireDate": "2018-07-01",
    "jobTitle": "Distribution Engineer",
    "lastName": "Fiore",
    "location": "GitLab Inc.",
    "flsaCode": "Active",
    "supervisor": "Sandee Pleasant",
    "supervisorEId": "41227",
    "workEmail": "afiore@mycompany.com"
  },
  {
    "id": "448402",
    "country": "Netherlands",
    "department": "Development",
    "displayName": "Akilah Welsh",
    "division": "Engineering",
    "firstName": "Akilah",
    "hireDate": "2019-07-02",
    "jobTitle": "Distribution Engineer",
    "lastName": "Welsh",
    "location": "GitLab BV",
    "flsaCode": "Active",
    "supervisor": "Jeanna Cudd",
    "supervisorEId": "41228",
    "workEmail": "awelsh@mycompany.com"
  },
  {
    "id": "448403",
    "country": null,
    "department": "Development",
    "displayName": "Evan Stoneham",
    "division": "Engineering",
    "firstName": "Evan",
    "hireDate": "2014-07-06",
    "jobTitle": "Distribution Engineer",
    "lastName": "Stoneham",
    "flsaCode": "Active",
    "supervisor": "Karry Antonucci",
    "supervisorEId": "41229",
    "workEmail": "estoneham@mycompany.com"
  },
  {
    "id": "448404",
    "country": "Australia",
    "department": "Development",
    "displayName": "Latanya Wilbert",
    "division": "Engineering",
    "firstName": "Latanya",
    "hireDate": "2015-07-08",
    "jobTitle": "Distribution Engineer",
    "lastName": "Wilbert",
    "flsaCode": "Active",
    "supervisor": "Karry Antonucci",
    "supervisorEId": "41229"
  },
  {
    "id": "448405",
    "country": "Australia",
    "department": "Development",
    "displayName": "Jane Doe",
    "division": "Engineering",
    "firstName": "Latanya",
    "jobTitle": "Distribution Engineer",
    "lastName": "Wilbert",
    "flsaCode": "Active",
    "supervisor": "Karry Antonucci",
    "supervisorEId": "41229"
  }
]
